"en_US","ru_RU","eo"
"No arguments.","Нет аргументов.","Argumentoj ne estas."
"Invalid command.","Неверная команда.","Malĝusta komando."
"See: vitis --help","Смотрите: vitis --help","Rigardu: vitis --help"
": file or category not found.",": файл или категория не найдены.",": dosiero aŭ kategorio ne estas trovita."
": file not found.",": файл найден.",": dosiero ne estas trovita."
": this category doesn't exist.",": такой категории нет.",": tiu kategorio ne ekzistas."
"Wrong expression.","Некорректное выражение.","Malĝusta esprimo."
"The expression contains non-existent categories.","Выражение содержит несуществующие категории.","La esprimo enhavas malekzistantajn kategoriojn."
"y","д","j"
"yes","да","jes"
"Skipped.","Пропускаем.","Preterlase."
"Do you want to create this category? y/n >: ","Вы хотите создать эту категорию? Д/н (y/n) >: ","Ĉu vi volas krei ĉi tiun kategorion? J/n (y/n) >:"
"Incorrect use of vitis.","Неправильное использование vitis.","Malĝusta uzado de vitis."
"Incorrect use of 'vitis assign'.","Неправильное использование команды ""assign"".","Malĝusta uzado de komando ""assign""."
"Incorrect use of 'vitis create'.","Неправильное использование команды ""create"".","Malĝusta uzado de komando ""create""."
"Incorrect use of 'vitis delete'.","Неправильное использование команды ""delete"".","Malĝusta uzado de komando ""delete""."
"Incorrect use of 'vitis show'.","Неправильное использование команды ""show"".","Malĝusta uzado de komando ""show""."
"Incorrect use of 'vitis open'.","Неправильное использование команды ""open"".","Malĝusta uzado de komando ""open""."
"Incorrect use of 'vitis help'.","Неправильное использование команды ""help"".","Malĝusta uzado de komando ""help""."
"B","байт","B"
"KiB","КиБ","KiB"
"MiB","МиБ","MiB"
"GiB","ГиБ","GiB"
"TiB","ТиБ","TiB"
"PiB","ПиБ","PiB"
"Modified: ","Изменено: ","Ŝanĝite: "
"Permissions: ","Права доступа: ","Rajtoj de aliro: "
"Accessed: ","Посл.обр.: ","Alirita: "
"Size: ","Размер: ","Mezuro: "
": renaming this category is not available.",": переименование такой категории недоступно.",": renomigo de tia kategorio estas nealirebla."
": creation of this alias is not available.",": создание такого псевдонима недоступно.",": faro de tia pseŭdonimo estas nealirebla."
"The '-c' option assumes only one value.","Параметр -c предполагает только одно следом идущее значение.","La opcio '-c' supozeble havas unu valoro."
": such file exists.",": такой файл уже существует.",": tiela dosiero jam ekzistas."
": assigning directories to categories is not allowed.",": присвоение категорий директориям недопустимо.",": fiksado de kategorioj al dosierujoj estas neallasebla."
": ignored.",": проигнорировано.",": ingorita."
": file exists and it is not category.",": файл существует и не является категорией.",": dosiero ekzistas, sed ĝi ne estas kategorio."
" and "," и "," kaj "
" are the same file."," — это один и тот же файл"," estas la sama dosiero."
"The duplicate file is ignored.","Повтор игнорируется.","La ripeto estas ignorita."
": the category is repeated.",": категория повторяется.",": la kategorio estas ripeta."
"This file system is not mounted.","Эта файловая система не примонтирована.","Tiu ĉi dosiersistemo ne estas muntita."
"Mount point does not exist.","Точка монтирования не существует.","Muntpunkto ne ekzistas."
"The file system is still mounted.","Файловая система всё ещё примонтирована.","La dosiersistemo estas ankoraŭ muntita."
